{
  "href" : "https://api.spotify.com/v1/artists/1SURdzPcn0fO2kYnZ7jAAz/albums?include_groups=single&offset=0&limit=9",
  "items" : [ {
    "album_group" : "single",
    "album_type" : "single",
    "artists" : [ {
      "external_urls" : {
        "spotify" : "https://open.spotify.com/artist/1SURdzPcn0fO2kYnZ7jAAz"
      },
      "href" : "https://api.spotify.com/v1/artists/1SURdzPcn0fO2kYnZ7jAAz",
      "id" : "1SURdzPcn0fO2kYnZ7jAAz",
      "name" : "Vices Inc",
      "type" : "artist",
      "uri" : "spotify:artist:1SURdzPcn0fO2kYnZ7jAAz"
    } ],
    "available_markets" : [ "AR", "AU", "AT", "BE", "BO", "BR", "BG", "CA", "CL", "CO", "CR", "CY", "CZ", "DK", "DO", "DE", "EC", "EE", "SV", "FI", "FR", "GR", "GT", "HN", "HK", "HU", "IS", "IE", "IT", "LV", "LT", "LU", "MY", "MT", "MX", "NL", "NZ", "NI", "NO", "PA", "PY", "PE", "PH", "PL", "PT", "SG", "SK", "ES", "SE", "CH", "TW", "TR", "UY", "US", "GB", "AD", "LI", "MC", "ID", "JP", "TH", "VN", "RO", "IL", "ZA", "SA", "AE", "BH", "QA", "OM", "KW", "EG", "MA", "DZ", "TN", "LB", "JO", "PS", "IN", "BY", "KZ", "MD", "UA", "AL", "BA", "HR", "ME", "MK", "RS", "SI", "KR", "BD", "PK", "LK", "GH", "KE", "NG", "TZ", "UG", "AG", "AM", "BS", "BB", "BZ", "BT", "BW", "BF", "CV", "CW", "DM", "FJ", "GM", "GE", "GD", "GW", "GY", "HT", "JM", "KI", "LS", "LR", "MW", "MV", "ML", "MH", "FM", "NA", "NR", "NE", "PW", "PG", "PR", "WS", "SM", "ST", "SN", "SC", "SL", "SB", "KN", "LC", "VC", "SR", "TL", "TO", "TT", "TV", "VU", "AZ", "BN", "BI", "KH", "CM", "TD", "KM", "GQ", "SZ", "GA", "GN", "KG", "LA", "MO", "MR", "MN", "NP", "RW", "TG", "UZ", "ZW", "BJ", "MG", "MU", "MZ", "AO", "CI", "DJ", "ZM", "CD", "CG", "IQ", "LY", "TJ", "VE", "ET", "XK" ],
    "external_urls" : {
      "spotify" : "https://open.spotify.com/album/5PQkr6lvAJgjSXdHifI8zn"
    },
    "href" : "https://api.spotify.com/v1/albums/5PQkr6lvAJgjSXdHifI8zn",
    "id" : "5PQkr6lvAJgjSXdHifI8zn",
    "images" : [ {
      "height" : 640,
      "url" : "https://i.scdn.co/image/ab67616d0000b273febe5dd1f16b7a3af34e71bd",
      "width" : 640
    }, {
      "height" : 300,
      "url" : "https://i.scdn.co/image/ab67616d00001e02febe5dd1f16b7a3af34e71bd",
      "width" : 300
    }, {
      "height" : 64,
      "url" : "https://i.scdn.co/image/ab67616d00004851febe5dd1f16b7a3af34e71bd",
      "width" : 64
    } ],
    "name" : "Impostor Syndrome",
    "release_date" : "2024-06-27",
    "release_date_precision" : "day",
    "total_tracks" : 2,
    "type" : "album",
    "uri" : "spotify:album:5PQkr6lvAJgjSXdHifI8zn"
  }, {
    "album_group" : "single",
    "album_type" : "single",
    "artists" : [ {
      "external_urls" : {
        "spotify" : "https://open.spotify.com/artist/1SURdzPcn0fO2kYnZ7jAAz"
      },
      "href" : "https://api.spotify.com/v1/artists/1SURdzPcn0fO2kYnZ7jAAz",
      "id" : "1SURdzPcn0fO2kYnZ7jAAz",
      "name" : "Vices Inc",
      "type" : "artist",
      "uri" : "spotify:artist:1SURdzPcn0fO2kYnZ7jAAz"
    } ],
    "available_markets" : [ "AR", "AU", "AT", "BE", "BO", "BR", "BG", "CA", "CL", "CO", "CR", "CY", "CZ", "DK", "DO", "DE", "EC", "EE", "SV", "FI", "FR", "GR", "GT", "HN", "HK", "HU", "IS", "IE", "IT", "LV", "LT", "LU", "MY", "MT", "MX", "NL", "NZ", "NI", "NO", "PA", "PY", "PE", "PH", "PL", "PT", "SG", "SK", "ES", "SE", "CH", "TW", "TR", "UY", "US", "GB", "AD", "LI", "MC", "ID", "JP", "TH", "VN", "RO", "IL", "ZA", "SA", "AE", "BH", "QA", "OM", "KW", "EG", "MA", "DZ", "TN", "LB", "JO", "PS", "IN", "BY", "KZ", "MD", "UA", "AL", "BA", "HR", "ME", "MK", "RS", "SI", "KR", "BD", "PK", "LK", "GH", "KE", "NG", "TZ", "UG", "AG", "AM", "BS", "BB", "BZ", "BT", "BW", "BF", "CV", "CW", "DM", "FJ", "GM", "GE", "GD", "GW", "GY", "HT", "JM", "KI", "LS", "LR", "MW", "MV", "ML", "MH", "FM", "NA", "NR", "NE", "PW", "PG", "PR", "WS", "SM", "ST", "SN", "SC", "SL", "SB", "KN", "LC", "VC", "SR", "TL", "TO", "TT", "TV", "VU", "AZ", "BN", "BI", "KH", "CM", "TD", "KM", "GQ", "SZ", "GA", "GN", "KG", "LA", "MO", "MR", "MN", "NP", "RW", "TG", "UZ", "ZW", "BJ", "MG", "MU", "MZ", "AO", "CI", "DJ", "ZM", "CD", "CG", "IQ", "LY", "TJ", "VE", "ET", "XK" ],
    "external_urls" : {
      "spotify" : "https://open.spotify.com/album/2OfxDEv64OtFmpqgOzw8ld"
    },
    "href" : "https://api.spotify.com/v1/albums/2OfxDEv64OtFmpqgOzw8ld",
    "id" : "2OfxDEv64OtFmpqgOzw8ld",
    "images" : [ {
      "height" : 640,
      "url" : "https://i.scdn.co/image/ab67616d0000b2735ec6ef722593acc4479d65f7",
      "width" : 640
    }, {
      "height" : 300,
      "url" : "https://i.scdn.co/image/ab67616d00001e025ec6ef722593acc4479d65f7",
      "width" : 300
    }, {
      "height" : 64,
      "url" : "https://i.scdn.co/image/ab67616d000048515ec6ef722593acc4479d65f7",
      "width" : 64
    } ],
    "name" : "Too Far Down",
    "release_date" : "2024-05-29",
    "release_date_precision" : "day",
    "total_tracks" : 2,
    "type" : "album",
    "uri" : "spotify:album:2OfxDEv64OtFmpqgOzw8ld"
  }, {
    "album_group" : "single",
    "album_type" : "single",
    "artists" : [ {
      "external_urls" : {
        "spotify" : "https://open.spotify.com/artist/1SURdzPcn0fO2kYnZ7jAAz"
      },
      "href" : "https://api.spotify.com/v1/artists/1SURdzPcn0fO2kYnZ7jAAz",
      "id" : "1SURdzPcn0fO2kYnZ7jAAz",
      "name" : "Vices Inc",
      "type" : "artist",
      "uri" : "spotify:artist:1SURdzPcn0fO2kYnZ7jAAz"
    } ],
    "available_markets" : [ "AR", "AU", "AT", "BE", "BO", "BR", "BG", "CA", "CL", "CO", "CR", "CY", "CZ", "DK", "DO", "DE", "EC", "EE", "SV", "FI", "FR", "GR", "GT", "HN", "HK", "HU", "IS", "IE", "IT", "LV", "LT", "LU", "MY", "MT", "MX", "NL", "NZ", "NI", "NO", "PA", "PY", "PE", "PH", "PL", "PT", "SG", "SK", "ES", "SE", "CH", "TW", "TR", "UY", "US", "GB", "AD", "LI", "MC", "ID", "JP", "TH", "VN", "RO", "IL", "ZA", "SA", "AE", "BH", "QA", "OM", "KW", "EG", "MA", "DZ", "TN", "LB", "JO", "PS", "IN", "BY", "KZ", "MD", "UA", "AL", "BA", "HR", "ME", "MK", "RS", "SI", "KR", "BD", "PK", "LK", "GH", "KE", "NG", "TZ", "UG", "AG", "AM", "BS", "BB", "BZ", "BT", "BW", "BF", "CV", "CW", "DM", "FJ", "GM", "GE", "GD", "GW", "GY", "HT", "JM", "KI", "LS", "LR", "MW", "MV", "ML", "MH", "FM", "NA", "NR", "NE", "PW", "PG", "PR", "WS", "SM", "ST", "SN", "SC", "SL", "SB", "KN", "LC", "VC", "SR", "TL", "TO", "TT", "TV", "VU", "AZ", "BN", "BI", "KH", "CM", "TD", "KM", "GQ", "SZ", "GA", "GN", "KG", "LA", "MO", "MR", "MN", "NP", "RW", "TG", "UZ", "ZW", "BJ", "MG", "MU", "MZ", "AO", "CI", "DJ", "ZM", "CD", "CG", "IQ", "LY", "TJ", "VE", "ET", "XK" ],
    "external_urls" : {
      "spotify" : "https://open.spotify.com/album/2tprEtOmMqZhMZB3K1lbDU"
    },
    "href" : "https://api.spotify.com/v1/albums/2tprEtOmMqZhMZB3K1lbDU",
    "id" : "2tprEtOmMqZhMZB3K1lbDU",
    "images" : [ {
      "height" : 640,
      "url" : "https://i.scdn.co/image/ab67616d0000b273f9cbb8269cb94f17bfdf5bc4",
      "width" : 640
    }, {
      "height" : 300,
      "url" : "https://i.scdn.co/image/ab67616d00001e02f9cbb8269cb94f17bfdf5bc4",
      "width" : 300
    }, {
      "height" : 64,
      "url" : "https://i.scdn.co/image/ab67616d00004851f9cbb8269cb94f17bfdf5bc4",
      "width" : 64
    } ],
    "name" : "Starting Over Again",
    "release_date" : "2024-04-25",
    "release_date_precision" : "day",
    "total_tracks" : 2,
    "type" : "album",
    "uri" : "spotify:album:2tprEtOmMqZhMZB3K1lbDU"
  }, {
    "album_group" : "single",
    "album_type" : "single",
    "artists" : [ {
      "external_urls" : {
        "spotify" : "https://open.spotify.com/artist/1SURdzPcn0fO2kYnZ7jAAz"
      },
      "href" : "https://api.spotify.com/v1/artists/1SURdzPcn0fO2kYnZ7jAAz",
      "id" : "1SURdzPcn0fO2kYnZ7jAAz",
      "name" : "Vices Inc",
      "type" : "artist",
      "uri" : "spotify:artist:1SURdzPcn0fO2kYnZ7jAAz"
    } ],
    "available_markets" : [ "AR", "AU", "AT", "BE", "BO", "BR", "BG", "CA", "CL", "CO", "CR", "CY", "CZ", "DK", "DO", "DE", "EC", "EE", "SV", "FI", "FR", "GR", "GT", "HN", "HK", "HU", "IS", "IE", "IT", "LV", "LT", "LU", "MY", "MT", "MX", "NL", "NZ", "NI", "NO", "PA", "PY", "PE", "PH", "PL", "PT", "SG", "SK", "ES", "SE", "CH", "TW", "TR", "UY", "US", "GB", "AD", "LI", "MC", "ID", "JP", "TH", "VN", "RO", "IL", "ZA", "SA", "AE", "BH", "QA", "OM", "KW", "EG", "MA", "DZ", "TN", "LB", "JO", "PS", "IN", "BY", "KZ", "MD", "UA", "AL", "BA", "HR", "ME", "MK", "RS", "SI", "KR", "BD", "PK", "LK", "GH", "KE", "NG", "TZ", "UG", "AG", "AM", "BS", "BB", "BZ", "BT", "BW", "BF", "CV", "CW", "DM", "FJ", "GM", "GE", "GD", "GW", "GY", "HT", "JM", "KI", "LS", "LR", "MW", "MV", "ML", "MH", "FM", "NA", "NR", "NE", "PW", "PG", "PR", "WS", "SM", "ST", "SN", "SC", "SL", "SB", "KN", "LC", "VC", "SR", "TL", "TO", "TT", "TV", "VU", "AZ", "BN", "BI", "KH", "CM", "TD", "KM", "GQ", "SZ", "GA", "GN", "KG", "LA", "MO", "MR", "MN", "NP", "RW", "TG", "UZ", "ZW", "BJ", "MG", "MU", "MZ", "AO", "CI", "DJ", "ZM", "CD", "CG", "IQ", "LY", "TJ", "VE", "ET", "XK" ],
    "external_urls" : {
      "spotify" : "https://open.spotify.com/album/1Zu45MfdKxwjeVOUyEKVNa"
    },
    "href" : "https://api.spotify.com/v1/albums/1Zu45MfdKxwjeVOUyEKVNa",
    "id" : "1Zu45MfdKxwjeVOUyEKVNa",
    "images" : [ {
      "height" : 640,
      "url" : "https://i.scdn.co/image/ab67616d0000b2733513f9c5dc244ea4949f5868",
      "width" : 640
    }, {
      "height" : 300,
      "url" : "https://i.scdn.co/image/ab67616d00001e023513f9c5dc244ea4949f5868",
      "width" : 300
    }, {
      "height" : 64,
      "url" : "https://i.scdn.co/image/ab67616d000048513513f9c5dc244ea4949f5868",
      "width" : 64
    } ],
    "name" : "Truculent",
    "release_date" : "2024-03-28",
    "release_date_precision" : "day",
    "total_tracks" : 1,
    "type" : "album",
    "uri" : "spotify:album:1Zu45MfdKxwjeVOUyEKVNa"
  }, {
    "album_group" : "single",
    "album_type" : "single",
    "artists" : [ {
      "external_urls" : {
        "spotify" : "https://open.spotify.com/artist/1SURdzPcn0fO2kYnZ7jAAz"
      },
      "href" : "https://api.spotify.com/v1/artists/1SURdzPcn0fO2kYnZ7jAAz",
      "id" : "1SURdzPcn0fO2kYnZ7jAAz",
      "name" : "Vices Inc",
      "type" : "artist",
      "uri" : "spotify:artist:1SURdzPcn0fO2kYnZ7jAAz"
    } ],
    "available_markets" : [ "AR", "AU", "AT", "BE", "BO", "BR", "BG", "CA", "CL", "CO", "CR", "CY", "CZ", "DK", "DO", "DE", "EC", "EE", "SV", "FI", "FR", "GR", "GT", "HN", "HK", "HU", "IS", "IE", "IT", "LV", "LT", "LU", "MY", "MT", "MX", "NL", "NZ", "NI", "NO", "PA", "PY", "PE", "PH", "PL", "PT", "SG", "SK", "ES", "SE", "CH", "TW", "TR", "UY", "US", "GB", "AD", "LI", "MC", "ID", "JP", "TH", "VN", "RO", "IL", "ZA", "SA", "AE", "BH", "QA", "OM", "KW", "EG", "MA", "DZ", "TN", "LB", "JO", "PS", "IN", "BY", "KZ", "MD", "UA", "AL", "BA", "HR", "ME", "MK", "RS", "SI", "KR", "BD", "PK", "LK", "GH", "KE", "NG", "TZ", "UG", "AG", "AM", "BS", "BB", "BZ", "BT", "BW", "BF", "CV", "CW", "DM", "FJ", "GM", "GE", "GD", "GW", "GY", "HT", "JM", "KI", "LS", "LR", "MW", "MV", "ML", "MH", "FM", "NA", "NR", "NE", "PW", "PG", "PR", "WS", "SM", "ST", "SN", "SC", "SL", "SB", "KN", "LC", "VC", "SR", "TL", "TO", "TT", "TV", "VU", "AZ", "BN", "BI", "KH", "CM", "TD", "KM", "GQ", "SZ", "GA", "GN", "KG", "LA", "MO", "MR", "MN", "NP", "RW", "TG", "UZ", "ZW", "BJ", "MG", "MU", "MZ", "AO", "CI", "DJ", "ZM", "CD", "CG", "IQ", "LY", "TJ", "VE", "ET", "XK" ],
    "external_urls" : {
      "spotify" : "https://open.spotify.com/album/0KTPxQ1NBb4IvvpNVpNgGd"
    },
    "href" : "https://api.spotify.com/v1/albums/0KTPxQ1NBb4IvvpNVpNgGd",
    "id" : "0KTPxQ1NBb4IvvpNVpNgGd",
    "images" : [ {
      "height" : 640,
      "url" : "https://i.scdn.co/image/ab67616d0000b273d8a82f591cca889defa13988",
      "width" : 640
    }, {
      "height" : 300,
      "url" : "https://i.scdn.co/image/ab67616d00001e02d8a82f591cca889defa13988",
      "width" : 300
    }, {
      "height" : 64,
      "url" : "https://i.scdn.co/image/ab67616d00004851d8a82f591cca889defa13988",
      "width" : 64
    } ],
    "name" : "Only a Fool",
    "release_date" : "2024-02-27",
    "release_date_precision" : "day",
    "total_tracks" : 2,
    "type" : "album",
    "uri" : "spotify:album:0KTPxQ1NBb4IvvpNVpNgGd"
  }, {
    "album_group" : "single",
    "album_type" : "single",
    "artists" : [ {
      "external_urls" : {
        "spotify" : "https://open.spotify.com/artist/1SURdzPcn0fO2kYnZ7jAAz"
      },
      "href" : "https://api.spotify.com/v1/artists/1SURdzPcn0fO2kYnZ7jAAz",
      "id" : "1SURdzPcn0fO2kYnZ7jAAz",
      "name" : "Vices Inc",
      "type" : "artist",
      "uri" : "spotify:artist:1SURdzPcn0fO2kYnZ7jAAz"
    } ],
    "available_markets" : [ "AR", "AU", "AT", "BE", "BO", "BR", "BG", "CA", "CL", "CO", "CR", "CY", "CZ", "DK", "DO", "DE", "EC", "EE", "SV", "FI", "FR", "GR", "GT", "HN", "HK", "HU", "IS", "IE", "IT", "LV", "LT", "LU", "MY", "MT", "MX", "NL", "NZ", "NI", "NO", "PA", "PY", "PE", "PH", "PL", "PT", "SG", "SK", "ES", "SE", "CH", "TW", "TR", "UY", "US", "GB", "AD", "LI", "MC", "ID", "JP", "TH", "VN", "RO", "IL", "ZA", "SA", "AE", "BH", "QA", "OM", "KW", "EG", "MA", "DZ", "TN", "LB", "JO", "PS", "IN", "BY", "KZ", "MD", "UA", "AL", "BA", "HR", "ME", "MK", "RS", "SI", "KR", "BD", "PK", "LK", "GH", "KE", "NG", "TZ", "UG", "AG", "AM", "BS", "BB", "BZ", "BT", "BW", "BF", "CV", "CW", "DM", "FJ", "GM", "GE", "GD", "GW", "GY", "HT", "JM", "KI", "LS", "LR", "MW", "MV", "ML", "MH", "FM", "NA", "NR", "NE", "PW", "PG", "PR", "WS", "SM", "ST", "SN", "SC", "SL", "SB", "KN", "LC", "VC", "SR", "TL", "TO", "TT", "TV", "VU", "AZ", "BN", "BI", "KH", "CM", "TD", "KM", "GQ", "SZ", "GA", "GN", "KG", "LA", "MO", "MR", "MN", "NP", "RW", "TG", "UZ", "ZW", "BJ", "MG", "MU", "MZ", "AO", "CI", "DJ", "ZM", "CD", "CG", "IQ", "LY", "TJ", "VE", "ET", "XK" ],
    "external_urls" : {
      "spotify" : "https://open.spotify.com/album/1zkzjGyGT8C6OfTCjN4PIn"
    },
    "href" : "https://api.spotify.com/v1/albums/1zkzjGyGT8C6OfTCjN4PIn",
    "id" : "1zkzjGyGT8C6OfTCjN4PIn",
    "images" : [ {
      "height" : 640,
      "url" : "https://i.scdn.co/image/ab67616d0000b2736119bbfe7b59a5b05237c7f6",
      "width" : 640
    }, {
      "height" : 300,
      "url" : "https://i.scdn.co/image/ab67616d00001e026119bbfe7b59a5b05237c7f6",
      "width" : 300
    }, {
      "height" : 64,
      "url" : "https://i.scdn.co/image/ab67616d000048516119bbfe7b59a5b05237c7f6",
      "width" : 64
    } ],
    "name" : "Regret Me",
    "release_date" : "2024-01-31",
    "release_date_precision" : "day",
    "total_tracks" : 2,
    "type" : "album",
    "uri" : "spotify:album:1zkzjGyGT8C6OfTCjN4PIn"
  }, {
    "album_group" : "single",
    "album_type" : "single",
    "artists" : [ {
      "external_urls" : {
        "spotify" : "https://open.spotify.com/artist/1SURdzPcn0fO2kYnZ7jAAz"
      },
      "href" : "https://api.spotify.com/v1/artists/1SURdzPcn0fO2kYnZ7jAAz",
      "id" : "1SURdzPcn0fO2kYnZ7jAAz",
      "name" : "Vices Inc",
      "type" : "artist",
      "uri" : "spotify:artist:1SURdzPcn0fO2kYnZ7jAAz"
    } ],
    "available_markets" : [ "AR", "AU", "AT", "BE", "BO", "BR", "BG", "CA", "CL", "CO", "CR", "CY", "CZ", "DK", "DO", "DE", "EC", "EE", "SV", "FI", "FR", "GR", "GT", "HN", "HK", "HU", "IS", "IE", "IT", "LV", "LT", "LU", "MY", "MT", "MX", "NL", "NZ", "NI", "NO", "PA", "PY", "PE", "PH", "PL", "PT", "SG", "SK", "ES", "SE", "CH", "TW", "TR", "UY", "US", "GB", "AD", "LI", "MC", "ID", "JP", "TH", "VN", "RO", "IL", "ZA", "SA", "AE", "BH", "QA", "OM", "KW", "EG", "MA", "DZ", "TN", "LB", "JO", "PS", "IN", "BY", "KZ", "MD", "UA", "AL", "BA", "HR", "ME", "MK", "RS", "SI", "KR", "BD", "PK", "LK", "GH", "KE", "NG", "TZ", "UG", "AG", "AM", "BS", "BB", "BZ", "BT", "BW", "BF", "CV", "CW", "DM", "FJ", "GM", "GE", "GD", "GW", "GY", "HT", "JM", "KI", "LS", "LR", "MW", "MV", "ML", "MH", "FM", "NA", "NR", "NE", "PW", "PG", "PR", "WS", "SM", "ST", "SN", "SC", "SL", "SB", "KN", "LC", "VC", "SR", "TL", "TO", "TT", "TV", "VU", "AZ", "BN", "BI", "KH", "CM", "TD", "KM", "GQ", "SZ", "GA", "GN", "KG", "LA", "MO", "MR", "MN", "NP", "RW", "TG", "UZ", "ZW", "BJ", "MG", "MU", "MZ", "AO", "CI", "DJ", "ZM", "CD", "CG", "IQ", "LY", "TJ", "VE", "ET", "XK" ],
    "external_urls" : {
      "spotify" : "https://open.spotify.com/album/5S0TkzIflmIx3gzUOr58Qt"
    },
    "href" : "https://api.spotify.com/v1/albums/5S0TkzIflmIx3gzUOr58Qt",
    "id" : "5S0TkzIflmIx3gzUOr58Qt",
    "images" : [ {
      "height" : 640,
      "url" : "https://i.scdn.co/image/ab67616d0000b27365eab695faa52ee3f41afaaa",
      "width" : 640
    }, {
      "height" : 300,
      "url" : "https://i.scdn.co/image/ab67616d00001e0265eab695faa52ee3f41afaaa",
      "width" : 300
    }, {
      "height" : 64,
      "url" : "https://i.scdn.co/image/ab67616d0000485165eab695faa52ee3f41afaaa",
      "width" : 64
    } ],
    "name" : "Look At Us Now (Honeycomb)",
    "release_date" : "2023-12-27",
    "release_date_precision" : "day",
    "total_tracks" : 2,
    "type" : "album",
    "uri" : "spotify:album:5S0TkzIflmIx3gzUOr58Qt"
  }, {
    "album_group" : "single",
    "album_type" : "single",
    "artists" : [ {
      "external_urls" : {
        "spotify" : "https://open.spotify.com/artist/1SURdzPcn0fO2kYnZ7jAAz"
      },
      "href" : "https://api.spotify.com/v1/artists/1SURdzPcn0fO2kYnZ7jAAz",
      "id" : "1SURdzPcn0fO2kYnZ7jAAz",
      "name" : "Vices Inc",
      "type" : "artist",
      "uri" : "spotify:artist:1SURdzPcn0fO2kYnZ7jAAz"
    } ],
    "available_markets" : [ "AR", "AU", "AT", "BE", "BO", "BR", "BG", "CA", "CL", "CO", "CR", "CY", "CZ", "DK", "DO", "DE", "EC", "EE", "SV", "FI", "FR", "GR", "GT", "HN", "HK", "HU", "IS", "IE", "IT", "LV", "LT", "LU", "MY", "MT", "MX", "NL", "NZ", "NI", "NO", "PA", "PY", "PE", "PH", "PL", "PT", "SG", "SK", "ES", "SE", "CH", "TW", "TR", "UY", "US", "GB", "AD", "LI", "MC", "ID", "JP", "TH", "VN", "RO", "IL", "ZA", "SA", "AE", "BH", "QA", "OM", "KW", "EG", "MA", "DZ", "TN", "LB", "JO", "PS", "IN", "BY", "KZ", "MD", "UA", "AL", "BA", "HR", "ME", "MK", "RS", "SI", "KR", "BD", "PK", "LK", "GH", "KE", "NG", "TZ", "UG", "AG", "AM", "BS", "BB", "BZ", "BT", "BW", "BF", "CV", "CW", "DM", "FJ", "GM", "GE", "GD", "GW", "GY", "HT", "JM", "KI", "LS", "LR", "MW", "MV", "ML", "MH", "FM", "NA", "NR", "NE", "PW", "PG", "PR", "WS", "SM", "ST", "SN", "SC", "SL", "SB", "KN", "LC", "VC", "SR", "TL", "TO", "TT", "TV", "VU", "AZ", "BN", "BI", "KH", "CM", "TD", "KM", "GQ", "SZ", "GA", "GN", "KG", "LA", "MO", "MR", "MN", "NP", "RW", "TG", "UZ", "ZW", "BJ", "MG", "MU", "MZ", "AO", "CI", "DJ", "ZM", "CD", "CG", "IQ", "LY", "TJ", "VE", "ET", "XK" ],
    "external_urls" : {
      "spotify" : "https://open.spotify.com/album/7MLYS1kYwQ4oojUtikGy0d"
    },
    "href" : "https://api.spotify.com/v1/albums/7MLYS1kYwQ4oojUtikGy0d",
    "id" : "7MLYS1kYwQ4oojUtikGy0d",
    "images" : [ {
      "height" : 640,
      "url" : "https://i.scdn.co/image/ab67616d0000b27397eb8519aac863f115c0096f",
      "width" : 640
    }, {
      "height" : 300,
      "url" : "https://i.scdn.co/image/ab67616d00001e0297eb8519aac863f115c0096f",
      "width" : 300
    }, {
      "height" : 64,
      "url" : "https://i.scdn.co/image/ab67616d0000485197eb8519aac863f115c0096f",
      "width" : 64
    } ],
    "name" : "To Clyde",
    "release_date" : "2023-12-15",
    "release_date_precision" : "day",
    "total_tracks" : 2,
    "type" : "album",
    "uri" : "spotify:album:7MLYS1kYwQ4oojUtikGy0d"
  }, {
    "album_group" : "single",
    "album_type" : "single",
    "artists" : [ {
      "external_urls" : {
        "spotify" : "https://open.spotify.com/artist/1SURdzPcn0fO2kYnZ7jAAz"
      },
      "href" : "https://api.spotify.com/v1/artists/1SURdzPcn0fO2kYnZ7jAAz",
      "id" : "1SURdzPcn0fO2kYnZ7jAAz",
      "name" : "Vices Inc",
      "type" : "artist",
      "uri" : "spotify:artist:1SURdzPcn0fO2kYnZ7jAAz"
    } ],
    "available_markets" : [ "AR", "AU", "AT", "BE", "BO", "BR", "BG", "CA", "CL", "CO", "CR", "CY", "CZ", "DK", "DO", "DE", "EC", "EE", "SV", "FI", "FR", "GR", "GT", "HN", "HK", "HU", "IS", "IE", "IT", "LV", "LT", "LU", "MY", "MT", "MX", "NL", "NZ", "NI", "NO", "PA", "PY", "PE", "PH", "PL", "PT", "SG", "SK", "ES", "SE", "CH", "TW", "TR", "UY", "US", "GB", "AD", "LI", "MC", "ID", "JP", "TH", "VN", "RO", "IL", "ZA", "SA", "AE", "BH", "QA", "OM", "KW", "EG", "MA", "DZ", "TN", "LB", "JO", "PS", "IN", "BY", "KZ", "MD", "UA", "AL", "BA", "HR", "ME", "MK", "RS", "SI", "KR", "BD", "PK", "LK", "GH", "KE", "NG", "TZ", "UG", "AG", "AM", "BS", "BB", "BZ", "BT", "BW", "BF", "CV", "CW", "DM", "FJ", "GM", "GE", "GD", "GW", "GY", "HT", "JM", "KI", "LS", "LR", "MW", "MV", "ML", "MH", "FM", "NA", "NR", "NE", "PW", "PG", "PR", "WS", "SM", "ST", "SN", "SC", "SL", "SB", "KN", "LC", "VC", "SR", "TL", "TO", "TT", "TV", "VU", "AZ", "BN", "BI", "KH", "CM", "TD", "KM", "GQ", "SZ", "GA", "GN", "KG", "LA", "MO", "MR", "MN", "NP", "RW", "TG", "UZ", "ZW", "BJ", "MG", "MU", "MZ", "AO", "CI", "DJ", "ZM", "CD", "CG", "IQ", "LY", "TJ", "VE", "ET", "XK" ],
    "external_urls" : {
      "spotify" : "https://open.spotify.com/album/1QHjb87rtqNWx0SIfwC4NE"
    },
    "href" : "https://api.spotify.com/v1/albums/1QHjb87rtqNWx0SIfwC4NE",
    "id" : "1QHjb87rtqNWx0SIfwC4NE",
    "images" : [ {
      "height" : 640,
      "url" : "https://i.scdn.co/image/ab67616d0000b2732d6e256927dca71639770822",
      "width" : 640
    }, {
      "height" : 300,
      "url" : "https://i.scdn.co/image/ab67616d00001e022d6e256927dca71639770822",
      "width" : 300
    }, {
      "height" : 64,
      "url" : "https://i.scdn.co/image/ab67616d000048512d6e256927dca71639770822",
      "width" : 64
    } ],
    "name" : "Rapid Fire '23",
    "release_date" : "2023-11-28",
    "release_date_precision" : "day",
    "total_tracks" : 2,
    "type" : "album",
    "uri" : "spotify:album:1QHjb87rtqNWx0SIfwC4NE"
  } ],
  "limit" : 9,
  "next" : "https://api.spotify.com/v1/artists/1SURdzPcn0fO2kYnZ7jAAz/albums?include_groups=single&offset=9&limit=9",
  "offset" : 0,
  "previous" : null,
  "total" : 51
}